C:\Users\shimoyama.nanase\workspace\TodoList\src\main\java\jp\co\todolist\entity\TodoList.java
C:\Users\shimoyama.nanase\workspace\TodoList\src\main\java\jp\co\todolist\dto\test\TodoListDto.java
C:\Users\shimoyama.nanase\workspace\TodoList\src\main\java\jp\co\todolist\service\TodoListService.java
C:\Users\shimoyama.nanase\workspace\TodoList\src\main\java\jp\co\todolist\controller\TodoListController.java
C:\Users\shimoyama.nanase\workspace\TodoList\src\main\java\jp\co\todolist\mapper\TodoListMapper.java
